get laser lock PSD/t0006ch2.CSV

Model,DPO2002B
Firmware Version,1.52

Point Format,Y,
Horizontal Units,S,
Horizontal Scale,0.002,
Sample Interval,1.6e-07,
Filter Frequency,7e+07,
Record Length,125000,
Gating,0.0% to 100.0%,
Probe Attenuation,1,
Vertical Units,V,
Vertical Offset,0,
Vertical Scale,0.2,
Label,,
TIME,CH2,CH2 Peak Detect
-9.98608e-03,0.092,0.204
-9.98592e-03,0.156,-0.268
-9.98576e-03,-0.116,0.244
-9.98560e-03,0.044,-0.252
-9.98544e-03,0.004,0.268
-9.98528e-03,-0.22,-0.236
-9.98512e-03,-0.076,0.228
-9.98496e-03,-0.148,-0.364
-9.98480e-03,-0.052,0.132
-9.98464e-03,0.132,-0.388
-9.98448e-03,0.052,0.132
-9.98432e-03,0.18,-0.26
-9.98416e-03,-0.02,0.412
-9.98400e-03,0.036,-0.276
-9.98384e-03,-0.06,0.356
-9.98368e-03,0.196,-0.356
-9.98352e-03,0.132,0.276
-9.98336e-03,-0.204,-0.172
-9.98320e-03,-0.004,0.324
-9.98304e-03,0.052,-0.284
-9.98288e-03,-0.14,0.316
-9.98272e-03,0.028,-0.388
-9.98256e-03,-0.1,0.204
-9.98240e-03,0.028,-0.284
-9.98224e-03,0.052,0.228
-9.98208e-03,0.004,-0.412
-9.98192e-03,-0.012,0.308
-9.98176e-03,-0.172,-0.38
-9.98160e-03,-0.02,0.212
-9.98144e-03,0.028,-0.38
-9.98128e-03,-0.116,0.252
-9.98112e-03,0.156,-0.308
-9.98096e-03,-0.036,0.212
-9.98080e-03,0.06,-0.244
-9.98064e-03,0.044,0.284
-9.98048e-03,-0.204,-0.284
-9.98032e-03,0.084,0.38
-9.98016e-03,-0.06,-0.316
-9.98000e-03,0.06,0.212
-9.97984e-03,0.068,-0.276
-9.97968e-03,-0.1,0.316
-9.97952e-03,0.028,-0.228
-9.97936e-03,-0.212,0.3
-9.97920e-03,0.012,-0.308
-9.97904e-03,0.02,0.148
-9.97888e-03,0.156,-0.308
-9.97872e-03,0.02,0.284
-9.97856e-03,-0.228,-0.276
-9.97840e-03,0.06,0.276
-9.97824e-03,0.092,-0.348
-9.97808e-03,-0.14,0.188
-9.97792e-03,0.108,-0.276
-9.97776e-03,-0.044,0.268
-9.97760e-03,0.052,-0.292
-9.97744e-03,-0.02,0.212
-9.97728e-03,-0.156,-0.236
-9.97712e-03,0.116,0.356
-9.97696e-03,-0.036,-0.396
-9.97680e-03,0.076,0.188
-9.97664e-03,0.012,-0.252
-9.97648e-03,-0.076,0.268
-9.97632e-03,0.116,-0.308
-9.97616e-03,0.004,0.18
-9.97600e-03,0.036,-0.316
-9.97584e-03,0.02,0.268
-9.97568e-03,-0.132,-0.268
-9.97552e-03,0.212,0.276
-9.97536e-03,0.012,-0.356
-9.97520e-03,0.044,0.276
-9.97504e-03,0.004,-0.212
-9.97488e-03,-0.092,0.228
-9.97472e-03,-0.052,-0.26
-9.97456e-03,-0.204,0.308
-9.97440e-03,0.02,-0.388
-9.97424e-03,0.076,0.132
-9.97408e-03,-0.052,-0.228
-9.97392e-03,0.092,0.236
-9.97376e-03,-0.052,-0.364
-9.97360e-03,0.116,0.292
-9.97344e-03,0.044,-0.356
-9.97328e-03,0.028,0.26
-9.97312e-03,-0.084,-0.292
-9.97296e-03,-0.156,0.236
-9.97280e-03,-0.028,-0.404
-9.97264e-03,0.02,0.236
-9.97248e-03,0.108,-0.3
-9.97232e-03,0.1,0.236
-9.97216e-03,-0.196,-0.252
-9.97200e-03,0.036,0.252
-9.97184e-03,0.012,-0.404
-9.97168e-03,-0.028,0.3
-9.97152e-03,0.004,-0.268
-9.97136e-03,-0.156,0.244
-9.97120e-03,-0.028,-0.388
-9.97104e-03,0.084,0.188
-9.97088e-03,-0.076,-0.332
-9.97072e-03,-0.004,0.26
-9.97056e-03,-0.204,-0.316
-9.97040e-03,0.052,0.196
-9.97024e-03,-0.02,-0.364
-9.97008e-03,0.14,0.188
-9.96992e-03,0.06,-0.108
-9.96976e-03,-0.204,0.348
-9.96960e-03,-0.1,-0.292
-9.96944e-03,0.06,0.228
-9.96928e-03,0.012,-0.34
-9.96912e-03,0.1,0.124
-9.96896e-03,-0.244,-0.212
-9.96880e-03,0.012,0.268
-9.96864e-03,0.044,-0.34
-9.96848e-03,-0.156,0.252
-9.96832e-03,0.068,-0.316
-9.96816e-03,0.124,0.236
-9.96800e-03,0.036,-0.244
-9.96784e-03,0.004,0.292
-9.96768e-03,-0.244,-0.388
-9.96752e-03,0.124,0.332
-9.96736e-03,-0.252,-0.268
-9.96720e-03,0.1,0.172
-9.96704e-03,0.044,-0.316
-9.96688e-03,0.02,0.236
-9.96672e-03,0.124,-0.172
-9.96656e-03,-0.036,0.316
-9.96640e-03,0.084,-0.26
-9.96624e-03,0.052,0.284
-9.96608e-03,-0.22,-0.228
-9.96592e-03,0.052,0.332
-9.96576e-03,-0.132,-0.38
-9.96560e-03,-0.052,0.132
-9.96544e-03,0.02,-0.348
-9.96528e-03,0.124,0.156
-9.96512e-03,0.228,-0.364
-9.96496e-03,-0.164,0.316
-9.96480e-03,-0.036,-0.26
-9.96464e-03,-0.004,0.388
-9.96448e-03,-0.236,-0.316
-9.96432e-03,0.164,0.212
-9.96416e-03,0.14,-0.332
-9.96400e-03,0.02,0.22
-9.96384e-03,-0.012,-0.196
-9.96368e-03,-0.22,0.372
-9.96352e-03,0.14,-0.364
-9.96336e-03,-0.252,0.252
-9.96320e-03,-0.012,-0.268
-9.96304e-03,0.036,0.268
-9.96288e-03,0.228,-0.364
-9.96272e-03,0.212,0.236
-9.96256e-03,-0.196,-0.148
-9.96240e-03,-0.044,0.452
-9.96224e-03,0.148,-0.284
-9.96208e-03,0.052,0.3
-9.96192e-03,0.26,-0.38
-9.96176e-03,0.06,0.236
-9.96160e-03,-0.004,-0.244
-9.96144e-03,0.1,0.388
-9.96128e-03,-0.1,-0.34
-9.96112e-03,0.132,0.26
-9.96096e-03,-0.084,-0.3
-9.96080e-03,-0.052,0.292
-9.96064e-03,-0.156,-0.348
-9.96048e-03,0.012,0.26
-9.96032e-03,0.188,-0.324
-9.96016e-03,-0.012,0.228
-9.96000e-03,0.068,-0.172
-9.95984e-03,0.132,0.348
-9.95968e-03,-0.212,-0.3
-9.95952e-03,-0.028,0.236
-9.95936e-03,-0.1,-0.372
-9.95920e-03,0.116,0.228
-9.95904e-03,0.004,-0.324
-9.95888e-03,-0.076,0.3
-9.95872e-03,0.132,-0.268
-9.95856e-03,-0.236,0.412
-9.95840e-03,-0.004,-0.388
-9.95824e-03,0.092,0.292
-9.95808e-03,-0.196,-0.284
-9.95792e-03,0.084,0.22
-9.95776e-03,-0.212,-0.372
-9.95760e-03,-0.044,0.204
-9.95744e-03,0.084,-0.356
-9.95728e-03,-0.132,0.276
-9.95712e-03,0.148,-0.236
-9.95696e-03,-0.196,0.3
-9.95680e-03,0.012,-0.3
-9.95664e-03,-0.06,0.22
-9.95648e-03,0.052,-0.244
-9.95632e-03,0.076,0.34
-9.95616e-03,-0.084,-0.252
-9.95600e-03,0.012,0.412
-9.95584e-03,0.06,-0.268
-9.95568e-03,-0.14,0.324
-9.95552e-03,0.02,-0.372
-9.95536e-03,-0.228,0.212
-9.95520e-03,0.036,-0.356
-9.95504e-03,0.052,0.212
-9.95488e-03,0.02,-0.244
-9.95472e-03,0.044,0.316
-9.95456e-03,-0.036,-0.3
-9.95440e-03,-0.1,0.268
-9.95424e-03,0.084,-0.308
-9.95408e-03,0.116,0.236
-9.95392e-03,0.196,-0.34
-9.95376e-03,-0.084,0.244
-9.95360e-03,0.02,-0.164
-9.95344e-03,0.044,0.284
-9.95328e-03,-0.204,-0.292
-9.95312e-03,0.076,0.26
-9.95296e-03,0.108,-0.436
-9.95280e-03,0.1,0.196
-9.95264e-03,0.06,-0.148
-9.95248e-03,-0.18,0.436
-9.95232e-03,0.044,-0.284
-9.95216e-03,-0.188,0.268
-9.95200e-03,-0.044,-0.34
-9.95184e-03,-0.028,0.18
-9.95168e-03,-0.1,-0.324
-9.95152e-03,0.076,0.3
-9.95136e-03,-0.092,-0.34
-9.95120e-03,0.052,0.236
-9.95104e-03,0.068,-0.26
-9.95088e-03,-0.124,0.3
-9.95072e-03,0.172,-0.276
-9.95056e-03,-0.036,0.18
-9.95040e-03,0.004,-0.188
-9.95024e-03,-0.012,0.244
-9.95008e-03,-0.284,-0.276
-9.94992e-03,0.004,0.188
-9.94976e-03,-0.108,-0.444
-9.94960e-03,0.052,0.18
-9.94944e-03,0.028,-0.268
-9.94928e-03,-0.1,0.26
-9.94912e-03,0.132,-0.356
-9.94896e-03,-0.156,0.236
-9.94880e-03,-0.02,-0.18
-9.94864e-03,0.14,0.268
-9.94848e-03,-0.076,-0.316
-9.94832e-03,0.188,0.188
-9.94816e-03,0.052,-0.34
-9.94800e-03,-0.116,0.284
-9.94784e-03,0.084,-0.292
-9.94768e-03,0.052,0.244
-9.94752e-03,0.14,-0.316
-9.94736e-03,-0.116,0.284
-9.94720e-03,-0.028,-0.172
-9.94704e-03,0.068,0.308
-9.94688e-03,-0.276,-0.332
-9.94672e-03,0.116,0.284
-9.94656e-03,-0.1,-0.364
-9.94640e-03,0.076,0.172
-9.94624e-03,-0.028,-0.268
-9.94608e-03,-0.1,0.196
-9.94592e-03,0.204,-0.38
-9.94576e-03,0.052,0.132
-9.94560e-03,-0.14,-0.14
-9.94544e-03,0.076,0.372
-9.94528e-03,0.036,-0.308
-9.94512e-03,0.156,0.172
-9.94496e-03,-0.22,-0.188
-9.94480e-03,-0.108,0.292
-9.94464e-03,0.052,-0.348
-9.94448e-03,0.172,0.34
-9.94432e-03,0.092,-0.244
-9.94416e-03,-0.196,0.244
-9.94400e-03,0.012,-0.34
-9.94384e-03,0.132,0.324
-9.94368e-03,-0.036,-0.3
-9.94352e-03,-0.012,0.3
-9.94336e-03,-0.188,-0.388
-9.94320e-03,-0.02,0.26
-9.94304e-03,0.004,-0.372
-9.94288e-03,-0.108,0.34
-9.94272e-03,0.148,-0.316
-9.94256e-03,-0.044,0.196
-9.94240e-03,0.004,-0.276
-9.94224e-03,0.084,0.324
-9.94208e-03,-0.14,-0.332
-9.94192e-03,0.116,0.252
-9.94176e-03,0.052,-0.316
-9.94160e-03,0.204,0.244
-9.94144e-03,0.028,-0.172
-9.94128e-03,-0.308,0.396
-9.94112e-03,-0.036,-0.332
-9.94096e-03,0.06,0.348
-9.94080e-03,-0.06,-0.308
-9.94064e-03,0.132,0.212
-9.94048e-03,-0.02,-0.3
-9.94032e-03,0.148,0.332
-9.94016e-03,-0.212,-0.196
-9.94000e-03,0.052,0.252
-9.93984e-03,0.06,-0.324
-9.93968e-03,-0.076,0.268
-9.93952e-03,0.1,-0.348
-9.93936e-03,-0.084,0.324
-9.93920e-03,0.044,-0.196
-9.93904e-03,0.148,0.244
-9.93888e-03,-0.172,-0.332
-9.93872e-03,0.1,0.212
-9.93856e-03,-0.124,-0.372
-9.93840e-03,-0.06,0.228
-9.93824e-03,0.084,-0.308
-9.93808e-03,0.004,0.212
-9.93792e-03,0.132,-0.324
-9.93776e-03,-0.268,0.236
-9.93760e-03,-0.124,-0.292
-9.93744e-03,0.14,0.204
-9.93728e-03,-0.14,-0.356
-9.93712e-03,0.076,0.164
-9.93696e-03,-0.132,-0.276
-9.93680e-03,0.02,0.188
-9.93664e-03,0.068,-0.332
-9.93648e-03,-0.052,0.292
-9.93632e-03,-0.044,-0.212
-9.93616e-03,-0.172,0.404
-9.93600e-03,0.02,-0.364
-9.93584e-03,0.02,0.196
-9.93568e-03,-0.228,-0.292
-9.93552e-03,0.06,0.236
-9.93536e-03,-0.188,-0.332
-9.93520e-03,0.028,0.228
-9.93504e-03,0.156,-0.268
-9.93488e-03,-0.028,0.212
-9.93472e-03,0.244,-0.156
-9.93456e-03,-0.156,0.38
-9.93440e-03,-0.06,-0.268
-9.93424e-03,0.108,0.284
-9.93408e-03,-0.012,-0.316
-9.93392e-03,0.1,0.228
-9.93376e-03,-0.212,-0.228
-9.93360e-03,-0.012,0.308
-9.93344e-03,0.116,-0.236
-9.93328e-03,-0.012,0.236
-9.93312e-03,0.18,-0.172
-9.93296e-03,-0.188,0.332
-9.93280e-03,0.028,-0.284
-9.93264e-03,0.156,0.316
-9.93248e-03,-0.204,-0.324
-9.93232e-03,0.084,0.196
-9.93216e-03,-0.1,-0.332
-9.93200e-03,-0.028,0.26
-9.93184e-03,0.028,-0.26
-9.93168e-03,0.004,0.26
-9.93152e-03,0.244,-0.244
-9.93136e-03,-0.06,0.236
-9.93120e-03,-0.116,-0.196
-9.93104e-03,0.132,0.284
-9.93088e-03,0.06,-0.284
-9.93072e-03,0.012,0.236
-9.93056e-03,-0.132,-0.18
-9.93040e-03,-0.028,0.332
-9.93024e-03,0.14,-0.316
-9.93008e-03,-0.26,0.26
-9.92992e-03,0.084,-0.3
-9.92976e-03,-0.244,0.188
-9.92960e-03,0.004,-0.34
-9.92944e-03,-0.02,0.276
-9.92928e-03,-0.028,-0.276
-9.92912e-03,0.14,0.22
-9.92896e-03,0.068,-0.228
-9.92880e-03,0.02,0.244
-9.92864e-03,0.1,-0.156
-9.92848e-03,-0.084,0.292
-9.92832e-03,-0.028,-0.324
-9.92816e-03,-0.236,0.34
-9.92800e-03,-0.02,-0.316
-9.92784e-03,0.028,0.22
-9.92768e-03,-0.276,-0.324
-9.92752e-03,0.012,0.276
-9.92736e-03,0.188,-0.3
-9.92720e-03,0.068,0.148
-9.92704e-03,0.076,-0.308
-9.92688e-03,-0.012,0.372
-9.92672e-03,0.076,-0.148
-9.92656e-03,-0.26,0.364
-9.92640e-03,0.028,-0.26
-9.92624e-03,0.14,0.252
-9.92608e-03,-0.18,-0.34
-9.92592e-03,0.052,0.244
-9.92576e-03,0.036,-0.364
-9.92560e-03,0.084,0.148
-9.92544e-03,0.092,-0.252
-9.92528e-03,-0.068,0.268
-9.92512e-03,0.172,-0.356
-9.92496e-03,-0.06,0.292
-9.92480e-03,-0.06,-0.196
-9.92464e-03,0.052,0.268
-9.92448e-03,-0.02,-0.268
-9.92432e-03,0.028,0.26
-9.92416e-03,-0.164,-0.204
-9.92400e-03,0.004,0.244
-9.92384e-03,0.156,-0.244
-9.92368e-03,-0.268,0.212
-9.92352e-03,-0.116,-0.332
-9.92336e-03,-0.116,0.284
-9.92320e-03,-0.036,-0.404
-9.92304e-03,0.076,0.196
-9.92288e-03,0.004,-0.26
-9.92272e-03,0.148,0.252
-9.92256e-03,-0.276,-0.22
-9.92240e-03,-0.068,0.404
-9.92224e-03,0.092,-0.34
-9.92208e-03,-0.012,0.212
-9.92192e-03,0.148,-0.316
-9.92176e-03,-0.252,0.3
-9.92160e-03,-0.012,-0.252
-9.92144e-03,0.156,0.388
-9.92128e-03,-0.228,-0.276
-9.92112e-03,-0.084,0.292
-9.92096e-03,-0.116,-0.388
-9.92080e-03,0.012,0.268
-9.92064e-03,0.092,-0.324
-9.92048e-03,-0.044,0.18
-9.92032e-03,0.116,-0.308
-9.92016e-03,-0.164,0.26
-9.92000e-03,-0.052,-0.276
-9.91984e-03,0.02,0.308
-9.91968e-03,-0.132,-0.324
-9.91952e-03,0.196,0.18
-9.91936e-03,-0.132,-0.308
-9.91920e-03,0.036,0.316
-9.91904e-03,0.108,-0.252
-9.91888e-03,-0.108,0.252
-9.91872e-03,0.036,-0.244
-9.91856e-03,-0.1,0.252
-9.91840e-03,-0.076,-0.332
-9.91824e-03,0.02,0.196
-9.91808e-03,-0.148,-0.292
-9.91792e-03,0.188,0.188
-9.91776e-03,0.14,-0.316
-9.91760e-03,0.076,0.188
-9.91744e-03,0.06,-0.244
-9.91728e-03,-0.196,0.348
-9.91712e-03,-0.068,-0.348
-9.91696e-03,-0.108,0.292
-9.91680e-03,0.02,-0.284
-9.91664e-03,0.196,0.06
-9.91648e-03,-0.02,-0.26
-9.91632e-03,0.3,0.3
-9.91616e-03,-0.18,-0.18
-9.91600e-03,-0.092,0.46
-9.91584e-03,0.092,-0.372
-9.91568e-03,-0.06,0.276
-9.91552e-03,0.148,-0.34
-9.91536e-03,-0.252,0.22
-9.91520e-03,-0.092,-0.252
-9.91504e-03,-0.084,0.292
-9.91488e-03,-0.148,-0.404
-9.91472e-03,0.06,0.316
-9.91456e-03,-0.1,-0.308
-9.91440e-03,0.028,0.188
-9.91424e-03,0.06,-0.316
-9.91408e-03,-0.212,0.34
-9.91392e-03,0.036,-0.292
-9.91376e-03,-0.092,0.228
-9.91360e-03,-0.06,-0.34
-9.91344e-03,0.052,0.22
-9.91328e-03,0.06,-0.316
-9.91312e-03,0.14,0.348
-9.91296e-03,-0.244,-0.228
-9.91280e-03,-0.02,0.388
-9.91264e-03,0.164,-0.308
-9.91248e-03,-0.172,0.244
-9.91232e-03,-0.036,-0.316
-9.91216e-03,-0.108,0.34
-9.91200e-03,0.06,-0.292
-9.91184e-03,0.14,0.196
-9.91168e-03,-0.132,-0.372
-9.91152e-03,0.196,0.26
-9.91136e-03,-0.148,-0.316
-9.91120e-03,-0.012,0.3
-9.91104e-03,0.068,-0.316
-9.91088e-03,-0.036,0.26
-9.91072e-03,0.132,-0.316
-9.91056e-03,-0.172,0.292
-9.91040e-03,-0.1,-0.172
-9.91024e-03,0.204,0.244
-9.91008e-03,-0.156,-0.34
-9.90992e-03,0.052,0.228
-9.90976e-03,-0.188,-0.332
-9.90960e-03,-0.012,0.236
-9.90944e-03,0.02,-0.244
-9.90928e-03,-0.26,0.22
-9.90912e-03,0.044,-0.356
-9.90896e-03,-0.092,0.196
-9.90880e-03,0.068,-0.316
-9.90864e-03,0.1,0.22
-9.90848e-03,-0.092,-0.284
-9.90832e-03,0.132,0.3
-9.90816e-03,-0.204,-0.276
-9.90800e-03,0.012,0.244
-9.90784e-03,0.116,-0.228
-9.90768e-03,-0.084,0.22
-9.90752e-03,0.052,-0.276
-9.90736e-03,-0.084,0.268
-9.90720e-03,0.028,-0.244
-9.90704e-03,0.068,0.308
-9.90688e-03,0.068,-0.228
-9.90672e-03,0.148,0.244
-9.90656e-03,-0.148,-0.164
-9.90640e-03,-0.012,0.332
-9.90624e-03,0.156,-0.252
-9.90608e-03,-0.148,0.26
-9.90592e-03,0.068,-0.316
-9.90576e-03,-0.132,0.204
-9.90560e-03,0.012,-0.316
-9.90544e-03,0.14,0.188
-9.90528e-03,-0.148,-0.268
-9.90512e-03,0.092,0.196
-9.90496e-03,0.1,-0.38
-9.90480e-03,-0.028,0.228
-9.90464e-03,0.052,-0.148
-9.90448e-03,-0.14,0.364
-9.90432e-03,0.036,-0.244
-9.90416e-03,-0.092,0.22
-9.90400e-03,0.036,-0.348
-9.90384e-03,0.068,0.22
-9.90368e-03,-0.172,-0.252
-9.90352e-03,-0.06,0.228
-9.90336e-03,-0.068,-0.38
-9.90320e-03,-0.004,0.228
-9.90304e-03,0.124,-0.324
-9.90288e-03,-0.14,0.22
-9.90272e-03,0.204,-0.196
-9.90256e-03,-0.148,0.284
-9.90240e-03,-0.108,-0.332
-9.90224e-03,0.06,0.276
-9.90208e-03,0.02,-0.308
-9.90192e-03,0.116,0.172
-9.90176e-03,-0.18,-0.228
-9.90160e-03,-0.012,0.26
-9.90144e-03,0.108,-0.34
-9.90128e-03,-0.044,0.228
-9.90112e-03,0.076,-0.22
-9.90096e-03,-0.188,0.26
-9.90080e-03,-0.036,-0.244
-9.90064e-03,0.044,0.204
-9.90048e-03,0.052,-0.324
-9.90032e-03,0.412,0.188
-9.90016e-03,-0.012,-0.172
-9.90000e-03,-0.204,0.46
-9.89984e-03,-0.204,-0.372
-9.89968e-03,-0.204,0.404
-9.89952e-03,0.26,-0.364
-9.89936e-03,-0.012,0.108
-9.89920e-03,-0.004,-0.26
-9.89904e-03,-0.14,0.38
-9.89888e-03,-0.18,-0.316
-9.89872e-03,0.156,0.244
-9.89856e-03,0.06,-0.348
-9.89840e-03,0.06,0.268
-9.89824e-03,0.204,-0.228
-9.89808e-03,-0.14,0.268
-9.89792e-03,0.156,-0.364
-9.89776e-03,-0.18,0.292
-9.89760e-03,-0.044,-0.204
-9.89744e-03,0.06,0.292
-9.89728e-03,-0.052,-0.372
-9.89712e-03,0.02,0.34
-9.89696e-03,-0.172,-0.34
-9.89680e-03,0.052,0.252
-9.89664e-03,0.172,-0.316
-9.89648e-03,-0.1,0.236
-9.89632e-03,0.052,-0.292
-9.89616e-03,-0.156,0.268
-9.89600e-03,-0.028,-0.284
-9.89584e-03,0.084,0.276
-9.89568e-03,-0.204,-0.356
-9.89552e-03,0.084,0.196
-9.89536e-03,-0.148,-0.276
-9.89520e-03,0.028,0.244
-9.89504e-03,0.044,-0.324
-9.89488e-03,-0.18,0.252
-9.89472e-03,0.116,-0.308
-9.89456e-03,-0.164,0.172
-9.89440e-03,0.036,-0.3
-9.89424e-03,0.148,0.22
-9.89408e-03,-0.036,-0.18
-9.89392e-03,-0.012,0.196
-9.89376e-03,-0.052,-0.3
-9.89360e-03,-0.076,0.3
-9.89344e-03,0.116,-0.3
-9.89328e-03,0.028,0.188
-9.89312e-03,0.356,-0.292
-9.89296e-03,0.156,0.244
-9.89280e-03,-0.052,-0.172
-9.89264e-03,-0.108,0.444
-9.89248e-03,-0.156,-0.3
-9.89232e-03,0.092,0.356
-9.89216e-03,-0.028,-0.38
-9.89200e-03,0.092,0.204
-9.89184e-03,0.084,-0.244
-9.89168e-03,-0.164,0.284
-9.89152e-03,0.076,-0.26
-9.89136e-03,-0.068,0.252
-9.89120e-03,-0.076,-0.324
-9.89104e-03,-0.26,0.284
-9.89088e-03,-0.044,-0.34
-9.89072e-03,0.18,0.204
-9.89056e-03,-0.196,-0.252
-9.89040e-03,-0.084,0.292
-9.89024e-03,0.132,-0.356
-9.89008e-03,0.06,0.284
-9.88992e-03,0.1,-0.228
-9.88976e-03,-0.108,0.324
-9.88960e-03,0.02,-0.204
-9.88944e-03,0.148,0.292
-9.88928e-03,-0.228,-0.26
-9.88912e-03,0.06,0.22
-9.88896e-03,-0.028,-0.308
-9.88880e-03,0.004,0.228
-9.88864e-03,0.02,-0.332
-9.88848e-03,-0.044,0.316
-9.88832e-03,0.084,-0.3
-9.88816e-03,-0.164,0.252
-9.88800e-03,0.02,-0.284
-9.88784e-03,0.1,0.268
-9.88768e-03,-0.14,-0.284
-9.88752e-03,0.108,0.26
-9.88736e-03,-0.076,-0.26
-9.88720e-03,0.052,0.236
-9.88704e-03,0.1,-0.3
-9.88688e-03,-0.18,0.3
-9.88672e-03,-0.028,-0.356
-9.88656e-03,-0.028,0.196
-9.88640e-03,-0.02,-0.332
-9.88624e-03,0.084,0.172
-9.88608e-03,-0.1,-0.284
-9.88592e-03,0.132,0.276
-9.88576e-03,-0.18,-0.236
-9.88560e-03,-0.124,0.22
-9.88544e-03,0.044,-0.38
-9.88528e-03,0.004,0.196
-9.88512e-03,0.348,-0.252
-9.88496e-03,0.06,0.316
-9.88480e-03,0.012,-0.116
-9.88464e-03,-0.06,0.396
-9.88448e-03,-0.18,-0.364
-9.88432e-03,0.092,0.196
-9.88416e-03,-0.1,-0.332
-9.88400e-03,-0.004,0.164
-9.88384e-03,-0.108,-0.332
-9.88368e-03,-0.02,0.26
-9.88352e-03,0.068,-0.3
-9.88336e-03,-0.02,0.244
-9.88320e-03,0.068,-0.156
-9.88304e-03,-0.02,0.292
-9.88288e-03,-0.164,-0.324
-9.88272e-03,0.116,0.268
-9.88256e-03,-0.084,-0.292
-9.88240e-03,0.004,0.236
-9.88224e-03,0.116,-0.148
-9.88208e-03,-0.228,0.26
-9.88192e-03,0.044,-0.3
-9.88176e-03,-0.092,0.26
-9.88160e-03,-0.004,-0.348
-9.88144e-03,0.084,0.156
-9.88128e-03,-0.06,-0.276
-9.88112e-03,0.084,0.22
-9.88096e-03,-0.068,-0.292
-9.88080e-03,-0.028,0.26
-9.88064e-03,0.156,-0.308
-9.88048e-03,-0.14,0.132
-9.88032e-03,0.044,-0.284
-9.88016e-03,-0.116,0.252
-9.88000e-03,-0.092,-0.26
-9.87984e-03,0.108,0.244
-9.87968e-03,-0.028,-0.34
-9.87952e-03,0.156,0.156
-9.87936e-03,0.02,-0.132
-9.87920e-03,0.028,0.3
-9.87904e-03,0.124,-0.14
-9.87888e-03,-0.212,0.396
-9.87872e-03,0.196,-0.316
-9.87856e-03,-0.052,0.228
-9.87840e-03,0.092,-0.292
-9.87824e-03,0.18,0.3
-9.87808e-03,-0.188,-0.164
-9.87792e-03,-0.156,0.284
-9.87776e-03,-0.044,-0.348
-9.87760e-03,-0.02,0.212
-9.87744e-03,0.092,-0.356
-9.87728e-03,-0.036,0.204
-9.87712e-03,0.204,-0.22
-9.87696e-03,-0.1,0.236
-9.87680e-03,0.044,-0.22
-9.87664e-03,0.116,0.308
-9.87648e-03,-0.06,-0.268
-9.87632e-03,0.06,0.236
-9.87616e-03,-0.036,-0.308
-9.87600e-03,-0.036,0.252
-9.87584e-03,0.124,-0.348
-9.87568e-03,-0.22,0.268
-9.87552e-03,0.076,-0.284
-9.87536e-03,-0.14,0.204
-9.87520e-03,-0.012,-0.292
-9.87504e-03,0.036,0.244
-9.87488e-03,-0.204,-0.348
-9.87472e-03,0.028,0.228
-9.87456e-03,-0.076,-0.356
-9.87440e-03,0.044,0.172
-9.87424e-03,0.156,-0.284
-9.87408e-03,-0.132,0.284
-9.87392e-03,0.1,-0.268
-9.87376e-03,-0.116,0.26
-9.87360e-03,0.06,-0.324
-9.87344e-03,0.06,0.228
-9.87328e-03,-0.196,-0.348
-9.87312e-03,-0.052,0.284
-9.87296e-03,0.036,-0.284
-9.87280e-03,-0.012,0.196
-9.87264e-03,0.092,-0.276
-9.87248e-03,-0.148,0.26
-9.87232e-03,-0.092,-0.172
-9.87216e-03,-0.156,0.316
-9.87200e-03,0.076,-0.26
-9.87184e-03,0.132,0.188
-9.87168e-03,-0.084,-0.18
-9.87152e-03,0.02,0.34
-9.87136e-03,-0.028,-0.284
-9.87120e-03,0.044,0.284
-9.87104e-03,0.092,-0.308
-9.87088e-03,-0.068,0.236
-9.87072e-03,-0.036,-0.132
-9.87056e-03,-0.092,0.356
-9.87040e-03,0.02,-0.324
-9.87024e-03,0.084,0.212
-9.87008e-03,-0.188,-0.204
-9.86992e-03,-0.004,0.292
-9.86976e-03,-0.092,-0.372
-9.86960e-03,0.004,0.164
-9.86944e-03,0.188,-0.324
-9.86928e-03,-0.172,0.252
-9.86912e-03,0.06,-0.292
-9.86896e-03,-0.068,0.188
-9.86880e-03,0.02,-0.212
-9.86864e-03,0.108,0.324
-9.86848e-03,-0.124,-0.26
-9.86832e-03,-0.084,0.212
-9.86816e-03,-0.052,-0.372
-9.86800e-03,0.036,0.268
-9.86784e-03,0.076,-0.396
-9.86768e-03,-0.02,0.244
-9.86752e-03,0.044,-0.14
-9.86736e-03,-0.004,0.3
-9.86720e-03,0.044,-0.348
-9.86704e-03,0.148,0.228
-9.86688e-03,-0.084,-0.196
-9.86672e-03,0.1,0.26
-9.86656e-03,-0.076,-0.204
-9.86640e-03,-0.06,0.396
-9.86624e-03,0.02,-0.292
-9.86608e-03,-0.228,0.276
-9.86592e-03,0.1,-0.284
-9.86576e-03,-0.076,0.132
-9.86560e-03,-0.084,-0.332
-9.86544e-03,0.156,0.268
-9.86528e-03,-0.108,-0.252
-9.86512e-03,-0.156,0.228
-9.86496e-03,0.116,-0.332
-9.86480e-03,-0.068,0.364
-9.86464e-03,0.268,-0.444
-9.86448e-03,-0.02,0.156
-9.86432e-03,0.124,-0.22
-9.86416e-03,-0.068,0.292
-9.86400e-03,-0.02,-0.356
-9.86384e-03,0.108,0.348
-9.86368e-03,0.028,-0.372
-9.86352e-03,0.292,0.196
-9.86336e-03,-0.076,-0.124
-9.86320e-03,-0.108,0.42
-9.86304e-03,0.18,-0.364
-9.86288e-03,-0.092,0.308
-9.86272e-03,0.092,-0.34
-9.86256e-03,0.012,0.316
