get laser lock PSD/t0007ch2.CSV

Model,DPO2002B
Firmware Version,1.52

Point Format,Y,
Horizontal Units,S,
Horizontal Scale,0.02,
Sample Interval,1.6e-06,
Filter Frequency,7e+07,
Record Length,125000,
Gating,0.0% to 100.0%,
Probe Attenuation,1,
Vertical Units,V,
Vertical Offset,0,
Vertical Scale,0.2,
Label,,
TIME,CH2,CH2 Peak Detect
-9.99856e-02,-0.02,0.324
-9.99840e-02,-0.1,-0.364
-9.99824e-02,0.116,0.396
-9.99808e-02,0.076,-0.356
-9.99792e-02,-0.044,0.284
-9.99776e-02,-0.052,-0.34
-9.99760e-02,-0.012,0.324
-9.99744e-02,-0.012,-0.364
-9.99728e-02,-0.076,0.324
-9.99712e-02,-0.212,-0.372
-9.99696e-02,-0.148,0.412
-9.99680e-02,-0.1,-0.348
-9.99664e-02,-0.204,0.388
-9.99648e-02,-0.044,-0.348
-9.99632e-02,-0.06,0.3
-9.99616e-02,0.004,-0.364
-9.99600e-02,0.076,0.38
-9.99584e-02,-0.012,-0.38
-9.99568e-02,-0.012,0.396
-9.99552e-02,0.044,-0.38
-9.99536e-02,0.108,0.348
-9.99520e-02,-0.052,-0.372
-9.99504e-02,-0.028,0.508
-9.99488e-02,0.028,-0.404
-9.99472e-02,-0.012,0.396
-9.99456e-02,0.028,-0.412
-9.99440e-02,0.1,0.532
-9.99424e-02,-0.036,-0.404
-9.99408e-02,-0.012,0.348
-9.99392e-02,-0.004,-0.38
-9.99376e-02,0.116,0.34
-9.99360e-02,-0.044,-0.476
-9.99344e-02,0.092,0.364
-9.99328e-02,0.116,-0.364
-9.99312e-02,-0.028,0.5
-9.99296e-02,-0.02,-0.38
-9.99280e-02,0.06,0.372
-9.99264e-02,0.06,-0.396
-9.99248e-02,-0.06,0.34
-9.99232e-02,-0.036,-0.332
-9.99216e-02,0.092,0.356
-9.99200e-02,-0.036,-0.412
-9.99184e-02,-0.028,0.404
-9.99168e-02,0.164,-0.404
-9.99152e-02,0.068,0.404
-9.99136e-02,-0.052,-0.388
-9.99120e-02,0.036,0.508
-9.99104e-02,0.028,-0.356
-9.99088e-02,-0.156,0.284
-9.99072e-02,0.092,-0.364
-9.99056e-02,0.116,0.364
-9.99040e-02,-0.02,-0.372
-9.99024e-02,0.028,0.388
-9.99008e-02,0.036,-0.404
-9.98992e-02,0.036,0.396
-9.98976e-02,0.028,-0.364
-9.98960e-02,0.028,0.372
-9.98944e-02,-0.06,-0.364
-9.98928e-02,0.068,0.276
-9.98912e-02,0.068,-0.468
-9.98896e-02,0.124,0.508
-9.98880e-02,-0.012,-0.38
-9.98864e-02,-0.012,0.38
-9.98848e-02,0.004,-0.428
-9.98832e-02,0.14,0.364
-9.98816e-02,-0.028,-0.38
-9.98800e-02,0.108,0.38
-9.98784e-02,0.028,-0.348
-9.98768e-02,0.124,0.428
-9.98752e-02,0.052,-0.388
-9.98736e-02,0.044,0.42
-9.98720e-02,0.036,-0.38
-9.98704e-02,0.1,0.292
-9.98688e-02,0.044,-0.38
-9.98672e-02,0.044,0.516
-9.98656e-02,-0.004,-0.388
-9.98640e-02,-0.012,0.292
-9.98624e-02,0.012,-0.396
-9.98608e-02,-0.004,0.372
-9.98592e-02,0.036,-0.348
-9.98576e-02,0.1,0.308
-9.98560e-02,0.156,-0.412
-9.98544e-02,0.084,0.388
-9.98528e-02,0.012,-0.412
-9.98512e-02,0.068,0.5
-9.98496e-02,0.044,-0.348
-9.98480e-02,0.076,0.292
-9.98464e-02,0.1,-0.444
-9.98448e-02,0.06,0.348
-9.98432e-02,0.212,-0.348
-9.98416e-02,0.084,0.372
-9.98400e-02,0.108,-0.372
-9.98384e-02,0.052,0.372
-9.98368e-02,0.124,-0.412
-9.98352e-02,0.092,0.324
-9.98336e-02,-0.068,-0.388
-9.98320e-02,0.18,0.396
-9.98304e-02,0.084,-0.348
-9.98288e-02,0.068,0.332
-9.98272e-02,0.044,-0.444
-9.98256e-02,0.204,0.396
-9.98240e-02,0.052,-0.396
-9.98224e-02,0.1,0.38
-9.98208e-02,0.1,-0.348
-9.98192e-02,0.148,0.332
-9.98176e-02,0.092,-0.356
-9.98160e-02,0.212,0.436
-9.98144e-02,0.02,-0.5
-9.98128e-02,0.092,0.476
-9.98112e-02,0.044,-0.396
-9.98096e-02,0.092,0.42
-9.98080e-02,0.156,-0.3
-9.98064e-02,0.084,0.308
-9.98048e-02,0.148,-0.38
-9.98032e-02,0.172,0.524
-9.98016e-02,0.068,-0.348
-9.98000e-02,0.044,0.332
-9.97984e-02,0.212,-0.364
-9.97968e-02,0.084,0.316
-9.97952e-02,0.156,-0.372
-9.97936e-02,0.132,0.356
-9.97920e-02,0.164,-0.332
-9.97904e-02,-0.244,0.292
-9.97888e-02,0.204,-0.316
-9.97872e-02,0.172,0.316
-9.97856e-02,0.084,-0.364
-9.97840e-02,0.14,0.388
-9.97824e-02,-0.188,-0.348
-9.97808e-02,0.124,0.292
-9.97792e-02,0.076,-0.372
-9.97776e-02,-0.116,0.412
-9.97760e-02,0.02,-0.428
-9.97744e-02,0.132,0.412
-9.97728e-02,0.14,-0.34
-9.97712e-02,0.172,0.3
-9.97696e-02,0.052,-0.316
-9.97680e-02,0.116,0.348
-9.97664e-02,0.164,-0.3
-9.97648e-02,0.148,0.3
-9.97632e-02,0.108,-0.332
-9.97616e-02,-0.092,0.372
-9.97600e-02,0.14,-0.332
-9.97584e-02,-0.196,0.34
-9.97568e-02,0.148,-0.356
-9.97552e-02,0.204,0.476
-9.97536e-02,0.14,-0.396
-9.97520e-02,-0.124,0.468
-9.97504e-02,0.172,-0.356
-9.97488e-02,0.22,0.444
-9.97472e-02,0.172,-0.364
-9.97456e-02,0.164,0.42
-9.97440e-02,0.148,-0.388
-9.97424e-02,0.076,0.308
-9.97408e-02,-0.068,-0.332
-9.97392e-02,-0.132,0.404
-9.97376e-02,0.14,-0.356
-9.97360e-02,0.1,0.348
-9.97344e-02,0.292,-0.34
-9.97328e-02,0.196,0.364
-9.97312e-02,0.148,-0.396
-9.97296e-02,0.196,0.436
-9.97280e-02,0.204,-0.364
-9.97264e-02,0.052,0.372
-9.97248e-02,0.156,-0.372
-9.97232e-02,0.004,0.524
-9.97216e-02,-0.276,-0.364
-9.97200e-02,0.188,0.428
-9.97184e-02,0.196,-0.436
-9.97168e-02,0.1,0.42
-9.97152e-02,-0.068,-0.38
-9.97136e-02,-0.06,0.316
-9.97120e-02,-0.212,-0.316
-9.97104e-02,0.22,0.452
-9.97088e-02,0.164,-0.428
-9.97072e-02,-0.004,0.452
-9.97056e-02,-0.212,-0.428
-9.97040e-02,0.068,0.436
-9.97024e-02,-0.116,-0.364
-9.97008e-02,0.084,0.324
-9.96992e-02,0.052,-0.332
-9.96976e-02,0.004,0.308
-9.96960e-02,0.252,-0.316
-9.96944e-02,0.172,0.284
-9.96928e-02,-0.02,-0.356
-9.96912e-02,-0.044,0.42
-9.96896e-02,-0.196,-0.372
-9.96880e-02,0.076,0.388
-9.96864e-02,0.196,-0.444
-9.96848e-02,0.028,0.388
-9.96832e-02,0.148,-0.308
-9.96816e-02,0.02,0.356
-9.96800e-02,-0.172,-0.332
-9.96784e-02,0.116,0.372
-9.96768e-02,-0.044,-0.356
-9.96752e-02,0.212,0.316
-9.96736e-02,-0.02,-0.364
-9.96720e-02,0.1,0.26
-9.96704e-02,-0.164,-0.332
-9.96688e-02,0.108,0.308
-9.96672e-02,-0.172,-0.364
-9.96656e-02,-0.148,0.38
-9.96640e-02,-0.108,-0.404
-9.96624e-02,0.156,0.452
-9.96608e-02,0.092,-0.38
-9.96592e-02,0.268,0.316
-9.96576e-02,-0.076,-0.348
-9.96560e-02,0.044,0.428
-9.96544e-02,-0.02,-0.38
-9.96528e-02,0.212,0.364
-9.96512e-02,-0.268,-0.444
-9.96496e-02,0.02,0.364
-9.96480e-02,0.108,-0.372
-9.96464e-02,0.164,0.372
-9.96448e-02,-0.284,-0.428
-9.96432e-02,0.06,0.484
-9.96416e-02,-0.092,-0.38
-9.96400e-02,0.14,0.34
-9.96384e-02,-0.116,-0.372
-9.96368e-02,0.06,0.372
-9.96352e-02,0.236,-0.364
-9.96336e-02,-0.084,0.372
-9.96320e-02,-0.076,-0.364
-9.96304e-02,-0.028,0.324
-9.96288e-02,-0.124,-0.372
-9.96272e-02,-0.316,0.348
-9.96256e-02,-0.068,-0.38
-9.96240e-02,0.028,0.364
-9.96224e-02,0.092,-0.364
-9.96208e-02,-0.028,0.38
-9.96192e-02,-0.028,-0.38
-9.96176e-02,-0.188,0.348
-9.96160e-02,-0.108,-0.508
-9.96144e-02,-0.164,0.324
-9.96128e-02,-0.044,-0.372
-9.96112e-02,-0.212,0.348
-9.96096e-02,-0.14,-0.332
-9.96080e-02,-0.1,0.428
-9.96064e-02,-0.1,-0.324
-9.96048e-02,-0.14,0.26
-9.96032e-02,0.156,-0.364
-9.96016e-02,0.156,0.356
-9.96000e-02,-0.204,-0.468
-9.95984e-02,0.076,0.532
-9.95968e-02,0.06,-0.396
-9.95952e-02,-0.012,0.404
-9.95936e-02,-0.084,-0.356
-9.95920e-02,-0.228,0.34
-9.95904e-02,-0.332,-0.38
-9.95888e-02,-0.132,0.452
-9.95872e-02,-0.252,-0.364
-9.95856e-02,0.028,0.412
-9.95840e-02,-0.108,-0.332
-9.95824e-02,-0.084,0.3
-9.95808e-02,0.172,-0.444
-9.95792e-02,0.028,0.316
-9.95776e-02,-0.116,-0.348
-9.95760e-02,-0.188,0.372
-9.95744e-02,-0.196,-0.364
-9.95728e-02,-0.068,0.476
-9.95712e-02,0.084,-0.364
-9.95696e-02,-0.148,0.388
-9.95680e-02,-0.052,-0.348
-9.95664e-02,-0.052,0.3
-9.95648e-02,0.044,-0.372
-9.95632e-02,-0.092,0.324
-9.95616e-02,-0.06,-0.42
-9.95600e-02,-0.188,0.316
-9.95584e-02,-0.076,-0.396
-9.95568e-02,-0.1,0.492
-9.95552e-02,0.004,-0.356
-9.95536e-02,0.092,0.444
-9.95520e-02,-0.044,-0.348
-9.95504e-02,-0.06,0.42
-9.95488e-02,-0.228,-0.364
-9.95472e-02,-0.164,0.316
-9.95456e-02,-0.196,-0.308
-9.95440e-02,-0.26,0.276
-9.95424e-02,-0.196,-0.364
-9.95408e-02,-0.02,0.372
-9.95392e-02,0.084,-0.364
-9.95376e-02,-0.044,0.428
-9.95360e-02,-0.196,-0.38
-9.95344e-02,-0.228,0.3
-9.95328e-02,0.02,-0.388
-9.95312e-02,-0.004,0.324
-9.95296e-02,-0.164,-0.348
-9.95280e-02,0.012,0.364
-9.95264e-02,-0.036,-0.348
-9.95248e-02,-0.108,0.468
-9.95232e-02,0.02,-0.38
-9.95216e-02,-0.164,0.428
-9.95200e-02,-0.004,-0.46
-9.95184e-02,-0.052,0.332
-9.95168e-02,0.044,-0.316
-9.95152e-02,-0.276,0.364
-9.95136e-02,-0.188,-0.436
-9.95120e-02,-0.068,0.46
-9.95104e-02,-0.148,-0.348
-9.95088e-02,-0.148,0.38
-9.95072e-02,-0.092,-0.372
-9.95056e-02,0.084,0.404
-9.95040e-02,-0.02,-0.364
-9.95024e-02,-0.26,0.404
-9.95008e-02,-0.196,-0.356
-9.94992e-02,-0.188,0.532
-9.94976e-02,-0.036,-0.38
-9.94960e-02,0.108,0.372
-9.94944e-02,-0.188,-0.348
-9.94928e-02,-0.148,0.356
-9.94912e-02,-0.108,-0.388
-9.94896e-02,-0.092,0.38
-9.94880e-02,-0.092,-0.34
-9.94864e-02,-0.052,0.332
-9.94848e-02,-0.028,-0.364
-9.94832e-02,-0.164,0.444
-9.94816e-02,-0.084,-0.348
-9.94800e-02,-0.148,0.292
-9.94784e-02,-0.076,-0.364
-9.94768e-02,-0.18,0.372
-9.94752e-02,-0.068,-0.356
-9.94736e-02,-0.004,0.316
-9.94720e-02,-0.076,-0.364
-9.94704e-02,-0.164,0.284
-9.94688e-02,-0.004,-0.356
-9.94672e-02,-0.052,0.356
-9.94656e-02,-0.1,-0.396
-9.94640e-02,-0.1,0.396
-9.94624e-02,-0.052,-0.388
-9.94608e-02,-0.076,0.42
-9.94592e-02,-0.044,-0.412
-9.94576e-02,-0.044,0.452
-9.94560e-02,-0.068,-0.372
-9.94544e-02,-0.1,0.468
-9.94528e-02,-0.164,-0.332
-9.94512e-02,-0.148,0.356
-9.94496e-02,-0.028,-0.332
-9.94480e-02,-0.212,0.324
-9.94464e-02,-0.004,-0.388
-9.94448e-02,0.044,0.38
-9.94432e-02,-0.02,-0.356
-9.94416e-02,-0.196,0.348
-9.94400e-02,-0.076,-0.38
-9.94384e-02,0.004,0.428
-9.94368e-02,-0.052,-0.38
-9.94352e-02,-0.052,0.38
-9.94336e-02,-0.14,-0.388
-9.94320e-02,-0.028,0.316
-9.94304e-02,-0.02,-0.34
-9.94288e-02,-0.14,0.276
-9.94272e-02,-0.132,-0.42
-9.94256e-02,-0.036,0.372
-9.94240e-02,-0.004,-0.46
-9.94224e-02,-0.092,0.38
-9.94208e-02,-0.004,-0.468
-9.94192e-02,-0.124,0.38
-9.94176e-02,-0.012,-0.396
-9.94160e-02,0.004,0.412
-9.94144e-02,-0.02,-0.356
-9.94128e-02,-0.132,0.372
-9.94112e-02,-0.044,-0.356
-9.94096e-02,-0.004,0.412
-9.94080e-02,-0.028,-0.38
-9.94064e-02,-0.076,0.428
-9.94048e-02,-0.172,-0.404
-9.94032e-02,-0.028,0.404
-9.94016e-02,-0.028,-0.364
-9.94000e-02,-0.052,0.388
-9.93984e-02,-0.052,-0.412
-9.93968e-02,-0.06,0.3
-9.93952e-02,-0.076,-0.372
-9.93936e-02,-0.004,0.524
-9.93920e-02,0.068,-0.38
-9.93904e-02,-0.068,0.348
-9.93888e-02,-0.18,-0.428
-9.93872e-02,-0.092,0.356
-9.93856e-02,0.052,-0.332
-9.93840e-02,-0.06,0.324
-9.93824e-02,0.076,-0.308
-9.93808e-02,0.02,0.284
-9.93792e-02,-0.14,-0.356
-9.93776e-02,0.036,0.396
-9.93760e-02,0.068,-0.5
-9.93744e-02,0.084,0.412
-9.93728e-02,-0.116,-0.388
-9.93712e-02,0.012,0.372
-9.93696e-02,-0.06,-0.364
-9.93680e-02,-0.004,0.316
-9.93664e-02,-0.076,-0.372
-9.93648e-02,0.028,0.308
-9.93632e-02,0.148,-0.364
-9.93616e-02,-0.028,0.308
-9.93600e-02,0.076,-0.324
-9.93584e-02,0.02,0.412
-9.93568e-02,0.1,-0.364
-9.93552e-02,-0.004,0.356
-9.93536e-02,0.036,-0.444
-9.93520e-02,0.076,0.372
-9.93504e-02,-0.012,-0.364
-9.93488e-02,0.06,0.308
-9.93472e-02,0.108,-0.372
-9.93456e-02,0.044,0.34
-9.93440e-02,0.132,-0.348
-9.93424e-02,0.068,0.316
-9.93408e-02,-0.004,-0.396
-9.93392e-02,-0.068,0.5
-9.93376e-02,0.116,-0.412
-9.93360e-02,0.116,0.412
-9.93344e-02,-0.004,-0.34
-9.93328e-02,0.036,0.26
-9.93312e-02,0.068,-0.332
-9.93296e-02,-0.116,0.26
-9.93280e-02,0.012,-0.404
-9.93264e-02,0.1,0.42
-9.93248e-02,0.124,-0.388
-9.93232e-02,0.092,0.396
-9.93216e-02,0.124,-0.356
-9.93200e-02,0.044,0.324
-9.93184e-02,0.116,-0.34
-9.93168e-02,0.132,0.316
-9.93152e-02,0.188,-0.34
-9.93136e-02,0.108,0.356
-9.93120e-02,0.036,-0.38
-9.93104e-02,0.004,0.34
-9.93088e-02,0.156,-0.388
-9.93072e-02,0.212,0.388
-9.93056e-02,0.236,-0.38
-9.93040e-02,0.084,0.436
-9.93024e-02,0.004,-0.42
-9.93008e-02,-0.06,0.38
-9.92992e-02,0.22,-0.324
-9.92976e-02,0.1,0.308
-9.92960e-02,0.036,-0.348
-9.92944e-02,0.212,0.308
-9.92928e-02,-0.012,-0.332
-9.92912e-02,0.044,0.508
-9.92896e-02,0.1,-0.348
-9.92880e-02,0.14,0.412
-9.92864e-02,-0.012,-0.404
-9.92848e-02,0.068,0.348
-9.92832e-02,0.092,-0.428
-9.92816e-02,0.044,0.324
-9.92800e-02,0.036,-0.404
-9.92784e-02,0.124,0.388
-9.92768e-02,0.204,-0.396
-9.92752e-02,-0.052,0.292
-9.92736e-02,0.076,-0.38
-9.92720e-02,0.212,0.42
-9.92704e-02,0.156,-0.38
-9.92688e-02,0.052,0.364
-9.92672e-02,0.092,-0.316
-9.92656e-02,-0.004,0.348
-9.92640e-02,0.148,-0.364
-9.92624e-02,0.108,0.38
-9.92608e-02,0.164,-0.372
-9.92592e-02,0.452,0.516
-9.92576e-02,0.42,-0.396
-9.92560e-02,0.204,0.524
-9.92544e-02,0.044,-0.388
-9.92528e-02,0.004,0.524
-9.92512e-02,0.172,-0.38
-9.92496e-02,0.124,0.316
-9.92480e-02,0.036,-0.332
-9.92464e-02,0.116,0.372
-9.92448e-02,0.124,-0.332
-9.92432e-02,0.156,0.276
-9.92416e-02,0.044,-0.324
-9.92400e-02,0.06,0.308
-9.92384e-02,0.092,-0.348
-9.92368e-02,0.172,0.356
-9.92352e-02,0.092,-0.38
-9.92336e-02,0.1,0.316
-9.92320e-02,0.14,-0.356
-9.92304e-02,0.148,0.34
-9.92288e-02,0.196,-0.364
-9.92272e-02,0.252,0.324
-9.92256e-02,0.148,-0.324
-9.92240e-02,-0.148,0.5
-9.92224e-02,0.068,-0.364
-9.92208e-02,0.012,0.388
-9.92192e-02,0.236,-0.324
-9.92176e-02,0.06,0.38
-9.92160e-02,-0.012,-0.356
-9.92144e-02,0.052,0.332
-9.92128e-02,0.012,-0.364
-9.92112e-02,0.044,0.5
-9.92096e-02,0.012,-0.34
-9.92080e-02,0.092,0.284
-9.92064e-02,-0.036,-0.34
-9.92048e-02,0.092,0.316
-9.92032e-02,0.22,-0.34
-9.92016e-02,0.132,0.332
-9.92000e-02,0.26,-0.364
-9.91984e-02,0.084,0.428
-9.91968e-02,0.092,-0.348
-9.91952e-02,0.228,0.292
-9.91936e-02,-0.196,-0.372
-9.91920e-02,-0.06,0.364
-9.91904e-02,0.1,-0.388
-9.91888e-02,0.22,0.3
-9.91872e-02,-0.052,-0.324
-9.91856e-02,0.092,0.276
-9.91840e-02,0.172,-0.38
-9.91824e-02,-0.244,0.516
-9.91808e-02,0.068,-0.38
-9.91792e-02,-0.02,0.388
-9.91776e-02,-0.004,-0.34
-9.91760e-02,-0.036,0.428
-9.91744e-02,-0.004,-0.364
-9.91728e-02,-0.06,0.252
-9.91712e-02,0.236,-0.412
-9.91696e-02,-0.196,0.444
-9.91680e-02,0.18,-0.34
-9.91664e-02,0.012,0.356
-9.91648e-02,0.108,-0.356
-9.91632e-02,-0.06,0.268
-9.91616e-02,0.164,-0.308
-9.91600e-02,0.004,0.34
-9.91584e-02,-0.236,-0.356
-9.91568e-02,0.092,0.316
-9.91552e-02,-0.044,-0.42
-9.91536e-02,0.1,0.38
-9.91520e-02,0.204,-0.348
-9.91504e-02,0.06,0.308
-9.91488e-02,-0.004,-0.34
-9.91472e-02,-0.212,0.348
-9.91456e-02,-0.076,-0.348
-9.91440e-02,0.004,0.38
-9.91424e-02,-0.228,-0.444
-9.91408e-02,-0.26,0.612
-9.91392e-02,-0.212,-0.412
-9.91376e-02,-0.108,0.38
-9.91360e-02,0.18,-0.34
-9.91344e-02,0.156,0.38
-9.91328e-02,-0.06,-0.396
-9.91312e-02,-0.068,0.428
-9.91296e-02,0.124,-0.332
-9.91280e-02,0.012,0.34
-9.91264e-02,0.084,-0.364
-9.91248e-02,-0.012,0.388
-9.91232e-02,-0.02,-0.324
-9.91216e-02,-0.092,0.276
-9.91200e-02,0.052,-0.324
-9.91184e-02,0.012,0.276
-9.91168e-02,0.092,-0.364
-9.91152e-02,0.076,0.308
-9.91136e-02,0.044,-0.388
-9.91120e-02,0.028,0.412
-9.91104e-02,0.084,-0.38
-9.91088e-02,0.156,0.388
-9.91072e-02,-0.22,-0.38
-9.91056e-02,-0.068,0.388
-9.91040e-02,-0.14,-0.308
-9.91024e-02,-0.244,0.3
-9.91008e-02,0.044,-0.38
-9.90992e-02,0.1,0.268
-9.90976e-02,-0.268,-0.364
-9.90960e-02,0.012,0.412
-9.90944e-02,0.06,-0.396
-9.90928e-02,-0.068,0.284
-9.90912e-02,-0.22,-0.372
-9.90896e-02,0.028,0.348
-9.90880e-02,0.06,-0.364
-9.90864e-02,0.06,0.268
-9.90848e-02,-0.164,-0.356
-9.90832e-02,0.012,0.404
-9.90816e-02,-0.156,-0.372
-9.90800e-02,0.02,0.364
-9.90784e-02,-0.108,-0.332
-9.90768e-02,-0.388,0.308
-9.90752e-02,-0.052,-0.388
-9.90736e-02,-0.164,0.396
-9.90720e-02,-0.004,-0.388
-9.90704e-02,-0.14,0.468
-9.90688e-02,-0.116,-0.492
-9.90672e-02,-0.14,0.404
-9.90656e-02,-0.188,-0.34
-9.90640e-02,-0.292,0.292
-9.90624e-02,-0.092,-0.364
-9.90608e-02,-0.196,0.484
-9.90592e-02,0.012,-0.356
-9.90576e-02,-0.236,0.332
-9.90560e-02,-0.052,-0.332
-9.90544e-02,-0.012,0.332
-9.90528e-02,-0.02,-0.38
-9.90512e-02,0.172,0.316
-9.90496e-02,-0.196,-0.324
-9.90480e-02,-0.284,0.332
-9.90464e-02,0.148,-0.444
-9.90448e-02,0.044,0.292
-9.90432e-02,0.012,-0.372
-9.90416e-02,-0.02,0.348
-9.90400e-02,-0.06,-0.34
-9.90384e-02,-0.1,0.38
-9.90368e-02,-0.204,-0.396
-9.90352e-02,-0.1,0.372
-9.90336e-02,-0.276,-0.34
-9.90320e-02,-0.236,0.516
-9.90304e-02,0.044,-0.356
-9.90288e-02,-0.148,0.276
-9.90272e-02,-0.18,-0.348
-9.90256e-02,-0.22,0.284
-9.90240e-02,-0.172,-0.388
-9.90224e-02,-0.196,0.428
-9.90208e-02,-0.18,-0.34
-9.90192e-02,-0.244,0.348
-9.90176e-02,-0.148,-0.348
-9.90160e-02,-0.196,0.364
-9.90144e-02,-0.012,-0.404
-9.90128e-02,0.036,0.308
-9.90112e-02,-0.204,-0.316
-9.90096e-02,-0.172,0.396
-9.90080e-02,0.068,-0.364
-9.90064e-02,-0.172,0.308
-9.90048e-02,0.116,-0.388
-9.90032e-02,-0.124,0.292
-9.90016e-02,-0.124,-0.46
-9.90000e-02,-0.284,0.34
-9.89984e-02,-0.132,-0.428
-9.89968e-02,0.004,0.404
-9.89952e-02,0.108,-0.332
-9.89936e-02,-0.132,0.316
-9.89920e-02,-0.18,-0.38
-9.89904e-02,-0.02,0.308
-9.89888e-02,-0.052,-0.364
-9.89872e-02,-0.228,0.404
-9.89856e-02,-0.236,-0.356
-9.89840e-02,-0.236,0.348
-9.89824e-02,-0.004,-0.412
-9.89808e-02,0.012,0.54
-9.89792e-02,-0.116,-0.388
-9.89776e-02,-0.116,0.268
-9.89760e-02,-0.196,-0.348
-9.89744e-02,-0.044,0.324
-9.89728e-02,-0.188,-0.348
-9.89712e-02,-0.132,0.388
-9.89696e-02,0.092,-0.332
-9.89680e-02,-0.196,0.364
-9.89664e-02,-0.204,-0.34
-9.89648e-02,-0.148,0.428
-9.89632e-02,-0.116,-0.38
-9.89616e-02,-0.132,0.324
-9.89600e-02,0.036,-0.348
-9.89584e-02,-0.02,0.372
-9.89568e-02,-0.028,-0.372
-9.89552e-02,-0.204,0.348
-9.89536e-02,-0.132,-0.348
-9.89520e-02,-0.14,0.348
-9.89504e-02,-0.132,-0.388
-9.89488e-02,-0.148,0.324
-9.89472e-02,0.004,-0.372
-9.89456e-02,-0.044,0.38
-9.89440e-02,0.092,-0.364
-9.89424e-02,0.02,0.332
-9.89408e-02,-0.108,-0.332
-9.89392e-02,-0.084,0.436
-9.89376e-02,-0.132,-0.34
-9.89360e-02,-0.116,0.372
-9.89344e-02,-0.028,-0.34
-9.89328e-02,0.116,0.324
-9.89312e-02,-0.052,-0.356
-9.89296e-02,-0.06,0.388
-9.89280e-02,-0.196,-0.38
-9.89264e-02,-0.028,0.452
-9.89248e-02,-0.1,-0.372
-9.89232e-02,-0.044,0.404
-9.89216e-02,-0.068,-0.34
-9.89200e-02,0.02,0.308
-9.89184e-02,-0.044,-0.436
-9.89168e-02,-0.02,0.308
-9.89152e-02,0.116,-0.364
-9.89136e-02,-0.132,0.3
-9.89120e-02,-0.092,-0.484
-9.89104e-02,-0.004,0.324
-9.89088e-02,0.036,-0.356
-9.89072e-02,0.108,0.348
-9.89056e-02,-0.028,-0.372
-9.89040e-02,0.044,0.356
-9.89024e-02,-0.044,-0.396
-9.89008e-02,-0.124,0.292
-9.88992e-02,0.028,-0.332
-9.88976e-02,-0.044,0.34
-9.88960e-02,-0.076,-0.428
-9.88944e-02,0.02,0.548
-9.88928e-02,-0.06,-0.436
-9.88912e-02,0.012,0.54
-9.88896e-02,-0.004,-0.444
-9.88880e-02,-0.012,0.396
-9.88864e-02,0.004,-0.372
-9.88848e-02,0.1,0.372
-9.88832e-02,0.052,-0.34
-9.88816e-02,-0.028,0.46
-9.88800e-02,0.068,-0.38
-9.88784e-02,-0.036,0.348
-9.88768e-02,0.124,-0.38
-9.88752e-02,0.228,0.308
-9.88736e-02,-0.116,-0.396
-9.88720e-02,0.012,0.42
-9.88704e-02,-0.052,-0.372
-9.88688e-02,0.132,0.34
-9.88672e-02,0.02,-0.348
-9.88656e-02,0.108,0.372
-9.88640e-02,0.052,-0.372
-9.88624e-02,0.028,0.284
-9.88608e-02,0.084,-0.364
-9.88592e-02,0.156,0.284
-9.88576e-02,0.012,-0.356
-9.88560e-02,0.028,0.34
-9.88544e-02,0.02,-0.372
-9.88528e-02,0.044,0.396
-9.88512e-02,-0.012,-0.388
-9.88496e-02,0.196,0.332
-9.88480e-02,0.036,-0.524
-9.88464e-02,0.036,0.516
-9.88448e-02,0.14,-0.46
-9.88432e-02,-0.004,0.34
-9.88416e-02,0.02,-0.38
-9.88400e-02,-0.036,0.364
-9.88384e-02,0.092,-0.372
-9.88368e-02,-0.068,0.34
-9.88352e-02,0.132,-0.356
-9.88336e-02,0.228,0.316
-9.88320e-02,-0.084,-0.364
-9.88304e-02,0.02,0.428
-9.88288e-02,0.1,-0.476
-9.88272e-02,0.06,0.452
-9.88256e-02,0.02,-0.356
-9.88240e-02,-0.012,0.332
-9.88224e-02,0.172,-0.38
-9.88208e-02,0.044,0.308
-9.88192e-02,0.036,-0.332
-9.88176e-02,0.044,0.284
-9.88160e-02,0.012,-0.372
-9.88144e-02,0.284,0.3
-9.88128e-02,0.116,-0.332
-9.88112e-02,0.06,0.3
-9.88096e-02,0.068,-0.356
-9.88080e-02,0.132,0.404
-9.88064e-02,0.052,-0.38
-9.88048e-02,-0.02,0.412
-9.88032e-02,0.004,-0.364
-9.88016e-02,0.052,0.324
-9.88000e-02,0.236,-0.356
-9.87984e-02,0.148,0.372
-9.87968e-02,-0.036,-0.452
-9.87952e-02,0.132,0.372
-9.87936e-02,0.052,-0.332
-9.87920e-02,-0.012,0.436
-9.87904e-02,0.028,-0.356
-9.87888e-02,0.052,0.42
-9.87872e-02,-0.012,-0.332
-9.87856e-02,0.084,0.292
-9.87840e-02,0.084,-0.332
-9.87824e-02,0.06,0.468
-9.87808e-02,0.028,-0.444
-9.87792e-02,0.06,0.38
-9.87776e-02,0.044,-0.348
-9.87760e-02,0.044,0.332
-9.87744e-02,0.012,-0.38
-9.87728e-02,0.036,0.34
-9.87712e-02,0.044,-0.348
-9.87696e-02,0.124,0.364
-9.87680e-02,0.092,-0.364
-9.87664e-02,0.084,0.3
-9.87648e-02,0.068,-0.38
-9.87632e-02,-0.004,0.372
-9.87616e-02,-0.012,-0.412
-9.87600e-02,0.06,0.348
-9.87584e-02,0.004,-0.364
-9.87568e-02,-0.044,0.428
-9.87552e-02,0.036,-0.348
-9.87536e-02,0.06,0.316
