get laser lock PSD/T0005CH2.CSV

Model,DPO2002B
Firmware Version,1.52

Point Format,Y,
Horizontal Units,S,
Horizontal Scale,0.0001,
Sample Interval,8e-09,
Filter Frequency,7e+07,
Record Length,125000,
Gating,0.0% to 100.0%,
Probe Attenuation,1,
Vertical Units,V,
Vertical Offset,0,
Vertical Scale,0.2,
Label,,
TIME,CH2,CH2 Peak Detect
-4.86160e-04,0.06,0.108
-4.86152e-04,-0.004,-0.068
-4.86144e-04,0.012,0.18
-4.86136e-04,-0.06,-0.132
-4.86128e-04,0.084,0.012
-4.86120e-04,0.044,-0.068
-4.86112e-04,0.036,0.164
-4.86104e-04,-0.1,-0.044
-4.86096e-04,0.004,0.052
-4.86088e-04,-0.052,-0.132
-4.86080e-04,-0.06,0.068
-4.86072e-04,-0.02,-0.156
-4.86064e-04,0.132,-0.02
-4.86056e-04,-0.124,-0.084
-4.86048e-04,-0.18,0.132
-4.86040e-04,0.092,-0.188
-4.86032e-04,0.1,0.124
-4.86024e-04,-0.252,-0.204
-4.86016e-04,-0.084,0.164
-4.86008e-04,0.004,-0.26
-4.86000e-04,-0.14,0.164
-4.85992e-04,-0.196,-0.252
-4.85984e-04,-0.084,0.012
-4.85976e-04,-0.06,-0.212
-4.85968e-04,-0.172,-0.012
-4.85960e-04,-0.204,-0.188
-4.85952e-04,-0.124,-0.02
-4.85944e-04,0.18,-0.204
-4.85936e-04,-0.052,-0.012
-4.85928e-04,-0.06,-0.124
-4.85920e-04,-0.028,0.212
-4.85912e-04,-0.124,-0.228
-4.85904e-04,-0.276,0.092
-4.85896e-04,-0.004,-0.276
-4.85888e-04,-0.004,-0.076
-4.85880e-04,-0.028,-0.3
-4.85872e-04,-0.076,0.012
-4.85864e-04,0.084,-0.076
-4.85856e-04,-0.068,-0.004
-4.85848e-04,-0.052,-0.084
-4.85840e-04,0.164,0.084
-4.85832e-04,0.148,-0.124
-4.85824e-04,-0.14,0.204
-4.85816e-04,-0.06,-0.14
-4.85808e-04,0.156,0.172
-4.85800e-04,-0.012,-0.148
-4.85792e-04,-0.1,0.156
-4.85784e-04,-0.052,-0.1
-4.85776e-04,0.204,0.148
-4.85768e-04,0.012,-0.164
-4.85760e-04,0.108,0.204
-4.85752e-04,0.076,-0.012
-4.85744e-04,0.02,0.356
-4.85736e-04,-0.1,-0.124
-4.85728e-04,0.084,0.076
-4.85720e-04,0.044,-0.108
-4.85712e-04,0.012,0.164
-4.85704e-04,0.092,-0.028
-4.85696e-04,0.188,0.06
-4.85688e-04,-0.108,-0.02
-4.85680e-04,-0.044,0.188
-4.85672e-04,0.196,-0.108
-4.85664e-04,0.204,0.196
-4.85656e-04,-0.108,-0.1
-4.85648e-04,0.004,0.22
-4.85640e-04,0.172,-0.116
-4.85632e-04,0.06,0.228
-4.85624e-04,-0.004,-0.052
-4.85616e-04,0.012,0.18
-4.85608e-04,0.196,-0.076
-4.85600e-04,0.044,0.14
-4.85592e-04,0.028,-0.012
-4.85584e-04,-0.028,0.212
-4.85576e-04,0.084,-0.14
-4.85568e-04,-0.012,0.204
-4.85560e-04,0.148,-0.092
-4.85552e-04,0.068,0.268
-4.85544e-04,0.02,-0.076
-4.85536e-04,-0.076,0.236
-4.85528e-04,0.068,-0.076
-4.85520e-04,0.028,0.124
-4.85512e-04,0.052,-0.084
-4.85504e-04,0.06,0.092
-4.85496e-04,0.172,0.004
-4.85488e-04,-0.124,0.204
-4.85480e-04,-0.1,-0.164
-4.85472e-04,0.108,0.188
-4.85464e-04,0.172,-0.108
-4.85456e-04,-0.116,0.212
-4.85448e-04,0.02,-0.116
-4.85440e-04,-0.1,0.196
-4.85432e-04,-0.068,-0.1
-4.85424e-04,0.028,0.06
-4.85416e-04,-0.004,-0.188
-4.85408e-04,0.068,0.044
-4.85400e-04,0.028,-0.044
-4.85392e-04,-0.228,0.092
-4.85384e-04,-0.196,-0.228
-4.85376e-04,0.22,0.1
-4.85368e-04,-0.044,-0.212
-4.85360e-04,-0.204,0.22
-4.85352e-04,-0.036,-0.204
-4.85344e-04,0.124,0.236
-4.85336e-04,-0.172,-0.26
-4.85328e-04,0.004,0.124
-4.85320e-04,0.052,-0.172
-4.85312e-04,-0.02,0.164
-4.85304e-04,-0.116,-0.092
-4.85296e-04,0.052,0.052
-4.85288e-04,-0.068,-0.132
-4.85280e-04,-0.06,0.068
-4.85272e-04,-0.108,-0.14
-4.85264e-04,0.004,0.036
-4.85256e-04,-0.044,-0.164
-4.85248e-04,0.004,0.004
-4.85240e-04,-0.068,-0.116
-4.85232e-04,0.028,0.004
-4.85224e-04,-0.092,-0.084
-4.85216e-04,-0.092,0.06
-4.85208e-04,0.012,-0.14
-4.85200e-04,-0.02,0.036
-4.85192e-04,-0.124,-0.116
-4.85184e-04,-0.116,0.012
-4.85176e-04,0.02,-0.132
-4.85168e-04,-0.124,0.076
-4.85160e-04,-0.1,-0.14
-4.85152e-04,-0.084,0.02
-4.85144e-04,0.036,-0.148
-4.85136e-04,-0.116,0.06
-4.85128e-04,-0.004,-0.116
-4.85120e-04,-0.028,0.068
-4.85112e-04,0.02,-0.14
-4.85104e-04,-0.06,0.068
-4.85096e-04,0.02,-0.1
-4.85088e-04,-0.1,0.172
-4.85080e-04,-0.052,-0.228
-4.85072e-04,-0.004,0.1
-4.85064e-04,0.124,-0.14
-4.85056e-04,-0.068,0.212
-4.85048e-04,0.004,-0.1
-4.85040e-04,0.148,0.124
-4.85032e-04,0.116,-0.036
-4.85024e-04,-0.092,0.148
-4.85016e-04,-0.044,-0.092
-4.85008e-04,0.18,0.188
-4.85000e-04,0.036,-0.156
-4.84992e-04,0.028,0.18
-4.84984e-04,0.012,-0.028
-4.84976e-04,0.164,0.22
-4.84968e-04,-0.02,-0.084
-4.84960e-04,0.076,0.164
-4.84952e-04,0.06,-0.036
-4.84944e-04,0.028,0.26
-4.84936e-04,-0.02,-0.06
-4.84928e-04,0.196,0.06
-4.84920e-04,-0.02,-0.028
-4.84912e-04,-0.1,0.244
-4.84904e-04,0.172,-0.124
-4.84896e-04,0.284,0.156
-4.84888e-04,-0.044,-0.06
-4.84880e-04,0.036,0.292
-4.84872e-04,0.172,-0.044
-4.84864e-04,0.132,0.284
-4.84856e-04,-0.004,-0.028
-4.84848e-04,0.052,0.204
-4.84840e-04,0.212,-0.068
-4.84832e-04,0.132,0.172
-4.84824e-04,0.084,-0.012
-4.84816e-04,0.044,0.22
-4.84808e-04,0.156,-0.044
-4.84800e-04,0.06,0.212
-4.84792e-04,0.116,-0.012
-4.84784e-04,0.02,0.22
-4.84776e-04,0.076,-0.068
-4.84768e-04,0.02,0.196
-4.84760e-04,0.196,-0.028
-4.84752e-04,0.004,0.236
-4.84744e-04,-0.068,-0.124
-4.84736e-04,0.012,0.236
-4.84728e-04,0.22,-0.092
-4.84720e-04,-0.028,0.212
-4.84712e-04,-0.028,-0.084
-4.84704e-04,0.012,0.22
-4.84696e-04,0.124,-0.028
-4.84688e-04,0.052,0.164
-4.84680e-04,0.092,-0.036
-4.84672e-04,-0.108,0.124
-4.84664e-04,0.004,-0.108
-4.84656e-04,-0.068,0.1
-4.84648e-04,-0.036,-0.116
-4.84640e-04,0.06,0.004
-4.84632e-04,0.108,-0.124
-4.84624e-04,-0.148,0.084
-4.84616e-04,-0.1,-0.148
-4.84608e-04,0.156,0.156
-4.84600e-04,-0.02,-0.124
-4.84592e-04,-0.124,0.164
-4.84584e-04,-0.06,-0.124
-4.84576e-04,-0.012,0.1
-4.84568e-04,-0.196,-0.164
-4.84560e-04,-0.14,0.02
-4.84552e-04,-0.108,-0.196
-4.84544e-04,-0.02,0.012
-4.84536e-04,-0.132,-0.164
-4.84528e-04,-0.036,-0.02
-4.84520e-04,-0.06,-0.132
-4.84512e-04,0.004,0.068
-4.84504e-04,-0.116,-0.188
-4.84496e-04,0.004,0.004
-4.84488e-04,-0.044,-0.132
-4.84480e-04,-0.052,0.084
-4.84472e-04,-0.14,-0.196
-4.84464e-04,0.012,-0.036
-4.84456e-04,-0.06,-0.196
-4.84448e-04,-0.052,0.012
-4.84440e-04,-0.084,-0.132
-4.84432e-04,0.02,-0.004
-4.84424e-04,-0.044,-0.14
-4.84416e-04,-0.044,0.02
-4.84408e-04,0.084,-0.076
-4.84400e-04,0.004,0.044
-4.84392e-04,-0.132,-0.052
-4.84384e-04,-0.132,0.116
-4.84376e-04,0.188,-0.156
-4.84368e-04,0.036,0.076
-4.84360e-04,0.06,-0.108
-4.84352e-04,-0.02,0.276
-4.84344e-04,-0.012,-0.228
-4.84336e-04,-0.076,0.244
-4.84328e-04,0.196,-0.148
-4.84320e-04,0.028,0.324
-4.84312e-04,-0.052,-0.172
-4.84304e-04,0.036,0.236
-4.84296e-04,0.196,-0.052
-4.84288e-04,0.012,0.252
-4.84280e-04,0.06,-0.076
-4.84272e-04,0.26,0.196
-4.84264e-04,0.212,0.036
-4.84256e-04,0.148,0.26
-4.84248e-04,0.124,0.036
-4.84240e-04,0.172,0.236
-4.84232e-04,0.132,0.036
-4.84224e-04,0.124,0.172
-4.84216e-04,0.036,0.02
-4.84208e-04,0.14,0.172
-4.84200e-04,0.108,-0.004
-4.84192e-04,0.22,0.14
-4.84184e-04,0.044,0.084
-4.84176e-04,0.02,0.252
-4.84168e-04,0.1,-0.02
-4.84160e-04,0.292,0.22
-4.84152e-04,-0.02,0.06
-4.84144e-04,0.004,0.292
-4.84136e-04,0.052,-0.028
-4.84128e-04,0.148,0.284
-4.84120e-04,-0.044,0.012
-4.84112e-04,0.028,0.164
-4.84104e-04,0.164,-0.044
-4.84096e-04,0.188,0.18
-4.84088e-04,-0.092,0.028
-4.84080e-04,-0.044,0.212
-4.84072e-04,0.212,-0.092
-4.84064e-04,0.204,0.196
-4.84056e-04,-0.084,-0.06
-4.84048e-04,0.012,0.22
-4.84040e-04,0.092,-0.1
-4.84032e-04,0.02,0.236
-4.84024e-04,-0.012,-0.076
-4.84016e-04,0.004,0.116
-4.84008e-04,-0.036,-0.068
-4.84000e-04,-0.084,0.092
-4.83992e-04,0.076,-0.108
-4.83984e-04,-0.06,0.044
-4.83976e-04,0.076,-0.06
-4.83968e-04,0.004,0.076
-4.83960e-04,-0.076,-0.044
-4.83952e-04,-0.108,0.1
-4.83944e-04,0.036,-0.204
-4.83936e-04,-0.156,0.14
-4.83928e-04,-0.092,-0.164
-4.83920e-04,-0.012,0.084
-4.83912e-04,-0.18,-0.188
-4.83904e-04,-0.3,0.052
-4.83896e-04,0.1,-0.3
-4.83888e-04,0.02,-0.036
-4.83880e-04,-0.172,-0.316
-4.83872e-04,-0.188,0.1
-4.83864e-04,0.036,-0.212
-4.83856e-04,-0.132,0.044
-4.83848e-04,-0.1,-0.252
-4.83840e-04,-0.06,0.036
-4.83832e-04,-0.028,-0.124
-4.83824e-04,-0.172,-0.036
-4.83816e-04,-0.052,-0.228
-4.83808e-04,-0.116,-0.02
-4.83800e-04,-0.156,-0.236
-4.83792e-04,-0.124,-0.028
-4.83784e-04,-0.028,-0.364
-4.83776e-04,-0.132,0.052
-4.83768e-04,-0.244,-0.268
-4.83760e-04,-0.028,-0.004
-4.83752e-04,-0.052,-0.3
-4.83744e-04,-0.236,0.1
-4.83736e-04,-0.26,-0.244
-4.83728e-04,0.004,-0.02
-4.83720e-04,-0.044,-0.26
-4.83712e-04,0.044,0.028
-4.83704e-04,-0.076,-0.06
-4.83696e-04,-0.036,0.044
-4.83688e-04,-0.084,-0.1
-4.83680e-04,-0.028,0.044
-4.83672e-04,-0.02,-0.188
-4.83664e-04,0.108,-0.028
-4.83656e-04,-0.076,-0.044
-4.83648e-04,-0.02,0.236
-4.83640e-04,0.204,-0.164
-4.83632e-04,0.124,0.068
-4.83624e-04,0.068,-0.06
-4.83616e-04,0.06,0.276
-4.83608e-04,0.164,0.004
-4.83600e-04,0.06,0.164
-4.83592e-04,0.1,-0.004
-4.83584e-04,-0.02,0.212
-4.83576e-04,0.052,-0.084
-4.83568e-04,-0.02,0.212
-4.83560e-04,0.132,-0.068
-4.83552e-04,0.044,0.14
-4.83544e-04,0.036,-0.06
-4.83536e-04,0.052,0.156
-4.83528e-04,0.204,0.012
-4.83520e-04,-0.028,0.244
-4.83512e-04,-0.036,-0.06
-4.83504e-04,0.204,0.22
-4.83496e-04,0.244,-0.036
-4.83488e-04,-0.164,0.276
-4.83480e-04,-0.044,-0.164
-4.83472e-04,0.26,0.26
-4.83464e-04,0.188,-0.116
-4.83456e-04,0.02,0.26
-4.83448e-04,0.1,0.004
-4.83440e-04,0.204,0.252
-4.83432e-04,0.092,-0.036
-4.83424e-04,0.06,0.204
-4.83416e-04,0.028,-0.004
-4.83408e-04,0.164,0.204
-4.83400e-04,0.036,-0.068
-4.83392e-04,-0.012,0.164
-4.83384e-04,-0.052,-0.012
-4.83376e-04,0.1,0.196
-4.83368e-04,-0.052,-0.164
-4.83360e-04,0.1,0.1
-4.83352e-04,0.044,-0.052
-4.83344e-04,-0.004,0.196
-4.83336e-04,-0.02,-0.1
-4.83328e-04,0.18,0.068
-4.83320e-04,-0.06,-0.044
-4.83312e-04,-0.116,0.204
-4.83304e-04,0.02,-0.164
-4.83296e-04,0.156,0.148
-4.83288e-04,-0.132,-0.076
-4.83280e-04,-0.068,0.18
-4.83272e-04,0.06,-0.22
-4.83264e-04,0.124,0.124
-4.83256e-04,-0.132,-0.076
-4.83248e-04,-0.004,0.268
-4.83240e-04,0.172,-0.156
-4.83232e-04,0.068,0.124
-4.83224e-04,-0.212,-0.1
-4.83216e-04,-0.076,0.22
-4.83208e-04,0.108,-0.212
-4.83200e-04,-0.06,0.148
-4.83192e-04,-0.044,-0.148
-4.83184e-04,-0.028,0.116
-4.83176e-04,0.068,-0.116
-4.83168e-04,-0.1,0.14
-4.83160e-04,0.028,-0.108
-4.83152e-04,-0.02,0.084
-4.83144e-04,0.02,-0.084
-4.83136e-04,-0.084,0.092
-4.83128e-04,0.06,-0.084
-4.83120e-04,-0.012,0.06
-4.83112e-04,-0.012,-0.092
-4.83104e-04,-0.004,0.1
-4.83096e-04,0.14,-0.076
-4.83088e-04,-0.076,0.204
-4.83080e-04,-0.068,-0.156
-4.83072e-04,0.148,0.164
-4.83064e-04,0.196,-0.068
-4.83056e-04,-0.18,0.244
-4.83048e-04,-0.036,-0.18
-4.83040e-04,0.1,0.212
-4.83032e-04,0.028,-0.124
-4.83024e-04,-0.132,0.1
-4.83016e-04,-0.028,-0.14
-4.83008e-04,0.044,0.132
-4.83000e-04,-0.076,-0.132
-4.82992e-04,-0.108,0.092
-4.82984e-04,-0.076,-0.124
-4.82976e-04,0.108,0.036
-4.82968e-04,-0.084,-0.108
-4.82960e-04,0.004,0.108
-4.82952e-04,-0.052,-0.084
-4.82944e-04,0.012,0.068
-4.82936e-04,-0.06,-0.076
-4.82928e-04,0.06,0.012
-4.82920e-04,-0.036,-0.068
-4.82912e-04,-0.02,0.116
-4.82904e-04,-0.068,-0.132
-4.82896e-04,0.052,0.02
-4.82888e-04,-0.02,-0.084
-4.82880e-04,0.012,0.14
-4.82872e-04,-0.044,-0.132
-4.82864e-04,0.076,0.012
-4.82856e-04,-0.092,-0.092
-4.82848e-04,-0.052,0.108
-4.82840e-04,0.1,-0.14
-4.82832e-04,0.092,0.052
-4.82824e-04,-0.204,-0.068
-4.82816e-04,-0.1,0.14
-4.82808e-04,0.156,-0.22
-4.82800e-04,-0.036,0.132
-4.82792e-04,-0.14,-0.124
-4.82784e-04,-0.052,0.156
-4.82776e-04,-0.036,-0.172
-4.82768e-04,-0.204,0.108
-4.82760e-04,-0.012,-0.212
-4.82752e-04,-0.044,-0.036
-4.82744e-04,0.036,-0.148
-4.82736e-04,-0.068,0.02
-4.82728e-04,-0.02,-0.076
-4.82720e-04,-0.068,0.052
-4.82712e-04,0.028,-0.132
-4.82704e-04,-0.1,0.076
-4.82696e-04,0.004,-0.132
-4.82688e-04,-0.02,0.084
-4.82680e-04,-0.012,-0.124
-4.82672e-04,0.06,0.044
-4.82664e-04,0.164,-0.108
-4.82656e-04,-0.188,0.172
-4.82648e-04,-0.148,-0.236
-4.82640e-04,0.148,0.164
-4.82632e-04,0.084,-0.164
-4.82624e-04,-0.228,0.212
-4.82616e-04,-0.044,-0.228
-4.82608e-04,0.06,0.148
-4.82600e-04,-0.116,-0.18
-4.82592e-04,-0.1,0.084
-4.82584e-04,-0.052,-0.204
-4.82576e-04,0.004,0.036
-4.82568e-04,-0.124,-0.108
-4.82560e-04,-0.212,0.012
-4.82552e-04,-0.172,-0.212
-4.82544e-04,0.02,0.036
-4.82536e-04,-0.148,-0.212
-4.82528e-04,-0.052,0.02
-4.82520e-04,-0.012,-0.156
-4.82512e-04,-0.012,0.084
-4.82504e-04,-0.164,-0.22
-4.82496e-04,0.012,-0.012
-4.82488e-04,-0.028,-0.204
-4.82480e-04,-0.052,0.028
-4.82472e-04,-0.06,-0.092
-4.82464e-04,0.108,0.004
-4.82456e-04,-0.076,-0.092
-4.82448e-04,-0.044,0.108
-4.82440e-04,0.156,-0.1
-4.82432e-04,0.124,0.1
-4.82424e-04,-0.156,-0.052
-4.82416e-04,-0.06,0.204
-4.82408e-04,0.196,-0.156
-4.82400e-04,-0.004,0.164
-4.82392e-04,-0.1,-0.084
-4.82384e-04,-0.044,0.196
-4.82376e-04,0.18,-0.164
-4.82368e-04,-0.036,0.156
-4.82360e-04,0.036,-0.084
-4.82352e-04,0.036,0.284
-4.82344e-04,0.028,-0.172
-4.82336e-04,-0.116,0.204
-4.82328e-04,0.052,-0.116
-4.82320e-04,0.028,0.14
-4.82312e-04,0.012,-0.132
-4.82304e-04,-0.076,0.108
-4.82296e-04,0.052,-0.076
-4.82288e-04,0.004,0.036
-4.82280e-04,0.044,-0.116
-4.82272e-04,0.124,0.132
-4.82264e-04,0.196,-0.028
-4.82256e-04,-0.148,0.172
-4.82248e-04,-0.084,-0.148
-4.82240e-04,0.236,0.196
-4.82232e-04,0.116,-0.132
-4.82224e-04,-0.132,0.236
-4.82216e-04,-0.02,-0.132
-4.82208e-04,0.172,0.196
-4.82200e-04,-0.028,-0.172
-4.82192e-04,0.036,0.172
-4.82184e-04,0.012,-0.092
-4.82176e-04,0.116,0.18
-4.82168e-04,-0.044,-0.108
-4.82160e-04,0.044,0.116
-4.82152e-04,0.012,-0.052
-4.82144e-04,0.036,0.204
-4.82136e-04,-0.084,-0.14
-4.82128e-04,0.068,0.036
-4.82120e-04,0.036,-0.1
-4.82112e-04,0.012,0.132
-4.82104e-04,0.02,-0.068
-4.82096e-04,0.172,0.044
-4.82088e-04,-0.068,-0.036
-4.82080e-04,-0.036,0.188
-4.82072e-04,0.164,-0.092
-4.82064e-04,0.188,0.148
-4.82056e-04,-0.084,-0.052
-4.82048e-04,0.02,0.22
-4.82040e-04,0.06,-0.1
-4.82032e-04,0.02,0.212
-4.82024e-04,0.1,-0.084
-4.82016e-04,0.036,0.068
-4.82008e-04,0.196,-0.02
-4.82000e-04,0.092,0.132
-4.81992e-04,-0.012,0.036
-4.81984e-04,-0.076,0.228
-4.81976e-04,0.108,-0.172
-4.81968e-04,-0.044,0.196
-4.81960e-04,0.052,-0.108
-4.81952e-04,0.06,0.252
-4.81944e-04,0.06,-0.14
-4.81936e-04,-0.1,0.188
-4.81928e-04,0.076,-0.1
-4.81920e-04,0.044,0.18
-4.81912e-04,0.012,-0.108
-4.81904e-04,0.036,0.116
-4.81896e-04,0.18,0.012
-4.81888e-04,-0.06,0.18
-4.81880e-04,-0.012,-0.068
-4.81872e-04,0.02,0.18
-4.81864e-04,0.084,-0.028
-4.81856e-04,0.06,0.076
-4.81848e-04,0.084,-0.068
-4.81840e-04,0.164,0.108
-4.81832e-04,0.124,0.02
-4.81824e-04,0.004,0.172
-4.81816e-04,-0.052,0.004
-4.81808e-04,0.148,0.148
-4.81800e-04,0.036,-0.1
-4.81792e-04,-0.004,0.148
-4.81784e-04,-0.036,-0.02
-4.81776e-04,0.092,0.204
-4.81768e-04,-0.084,-0.164
-4.81760e-04,0.036,0.092
-4.81752e-04,0.012,-0.084
-4.81744e-04,0.028,0.164
-4.81736e-04,-0.1,-0.164
-4.81728e-04,0.052,0.028
-4.81720e-04,-0.012,-0.108
-4.81712e-04,-0.028,0.14
-4.81704e-04,-0.076,-0.172
-4.81696e-04,0.036,0.004
-4.81688e-04,-0.116,-0.124
-4.81680e-04,-0.076,0.116
-4.81672e-04,-0.084,-0.252
-4.81664e-04,0.044,-0.052
-4.81656e-04,-0.052,-0.172
-4.81648e-04,-0.036,0.084
-4.81640e-04,-0.148,-0.124
-4.81632e-04,-0.02,0.036
-4.81624e-04,0.004,-0.252
-4.81616e-04,-0.044,-0.02
-4.81608e-04,-0.1,-0.044
-4.81600e-04,-0.044,0.188
-4.81592e-04,-0.124,-0.132
-4.81584e-04,-0.172,-0.036
-4.81576e-04,0.068,-0.172
-4.81568e-04,-0.084,0.084
-4.81560e-04,-0.14,-0.14
-4.81552e-04,-0.084,0.068
-4.81544e-04,-0.068,-0.188
-4.81536e-04,-0.204,0.052
-4.81528e-04,0.108,-0.204
-4.81520e-04,0.044,0.036
-4.81512e-04,-0.052,-0.18
-4.81504e-04,-0.076,0.108
-4.81496e-04,0.076,-0.076
-4.81488e-04,-0.092,0.044
-4.81480e-04,-0.068,-0.156
-4.81472e-04,-0.02,0.1
-4.81464e-04,0.092,-0.116
-4.81456e-04,-0.068,0.14
-4.81448e-04,-0.004,-0.092
-4.81440e-04,-0.092,0.092
-4.81432e-04,-0.02,-0.092
-4.81424e-04,-0.1,0.036
-4.81416e-04,-0.084,-0.188
-4.81408e-04,0.108,0.02
-4.81400e-04,0.02,-0.116
-4.81392e-04,0.02,0.116
-4.81384e-04,-0.052,-0.044
-4.81376e-04,0.132,0.124
-4.81368e-04,0.012,-0.052
-4.81360e-04,0.108,0.132
-4.81352e-04,-0.02,0.004
-4.81344e-04,-0.068,0.228
-4.81336e-04,-0.092,-0.18
-4.81328e-04,0.132,0.052
-4.81320e-04,-0.012,-0.108
-4.81312e-04,-0.028,0.156
-4.81304e-04,-0.052,-0.132
-4.81296e-04,0.06,0.076
-4.81288e-04,-0.02,-0.1
-4.81280e-04,0.028,0.148
-4.81272e-04,-0.084,-0.076
-4.81264e-04,0.036,0.028
-4.81256e-04,-0.068,-0.124
-4.81248e-04,-0.044,0.06
-4.81240e-04,-0.012,-0.108
-4.81232e-04,0.06,0.012
-4.81224e-04,-0.116,-0.108
-4.81216e-04,-0.092,0.06
-4.81208e-04,0.06,-0.116
-4.81200e-04,-0.036,0.108
-4.81192e-04,-0.06,-0.1
-4.81184e-04,-0.068,0.092
-4.81176e-04,0.028,-0.1
-4.81168e-04,-0.116,0.076
-4.81160e-04,-0.012,-0.124
-4.81152e-04,-0.076,0.028
-4.81144e-04,-0.028,-0.084
-4.81136e-04,-0.1,0.044
-4.81128e-04,-0.004,-0.108
-4.81120e-04,-0.076,0.012
-4.81112e-04,-0.004,-0.172
-4.81104e-04,-0.06,0.084
-4.81096e-04,0.068,-0.14
-4.81088e-04,-0.052,0.18
-4.81080e-04,-0.06,-0.204
-4.81072e-04,-0.084,0.108
-4.81064e-04,0.044,-0.084
-4.81056e-04,-0.052,0.044
-4.81048e-04,-0.012,-0.188
-4.81040e-04,-0.052,0.044
-4.81032e-04,0.02,-0.06
-4.81024e-04,-0.02,0.052
-4.81016e-04,-0.028,-0.108
-4.81008e-04,0.156,0.044
-4.81000e-04,0.036,-0.084
-4.80992e-04,-0.164,0.18
-4.80984e-04,-0.148,-0.164
-4.80976e-04,0.108,0.1
-4.80968e-04,-0.052,-0.196
-4.80960e-04,0.044,0.108
-4.80952e-04,-0.004,-0.068
-4.80944e-04,0.028,0.18
-4.80936e-04,-0.06,-0.156
-4.80928e-04,0.116,0.028
-4.80920e-04,-0.012,-0.06
-4.80912e-04,-0.06,0.276
-4.80904e-04,-0.084,-0.212
-4.80896e-04,0.06,0.036
-4.80888e-04,-0.036,-0.156
-4.80880e-04,-0.012,0.124
-4.80872e-04,0.036,-0.164
-4.80864e-04,0.132,0.028
-4.80856e-04,-0.132,-0.076
-4.80848e-04,-0.068,0.164
-4.80840e-04,0.212,-0.148
-4.80832e-04,0.116,0.124
-4.80824e-04,-0.244,-0.076
-4.80816e-04,-0.084,0.268
-4.80808e-04,0.172,-0.244
-4.80800e-04,-0.068,0.164
-4.80792e-04,-0.036,-0.148
-4.80784e-04,-0.004,0.172
-4.80776e-04,0.028,-0.108
-4.80768e-04,-0.132,0.116
-4.80760e-04,0.012,-0.132
-4.80752e-04,-0.052,0.028
-4.80744e-04,0.004,-0.1
-4.80736e-04,-0.1,0.076
-4.80728e-04,0.02,-0.1
-4.80720e-04,-0.02,0.028
-4.80712e-04,0.02,-0.1
-4.80704e-04,-0.02,0.068
-4.80696e-04,0.108,-0.1
-4.80688e-04,-0.092,0.172
-4.80680e-04,-0.132,-0.164
-4.80672e-04,0.076,0.148
-4.80664e-04,0.196,-0.14
-4.80656e-04,-0.164,0.236
-4.80648e-04,-0.052,-0.196
-4.80640e-04,0.044,0.204
-4.80632e-04,-0.004,-0.084
-4.80624e-04,-0.02,0.108
-4.80616e-04,0.02,-0.164
-4.80608e-04,-0.132,0.068
-4.80600e-04,-0.124,-0.132
-4.80592e-04,0.068,0.044
-4.80584e-04,-0.1,-0.156
-4.80576e-04,0.028,0.084
-4.80568e-04,0.004,-0.1
-4.80560e-04,-0.028,0.036
-4.80552e-04,-0.1,-0.028
-4.80544e-04,0.052,0.164
-4.80536e-04,-0.1,-0.18
-4.80528e-04,0.02,0.052
-4.80520e-04,0.036,-0.1
-4.80512e-04,-0.036,0.156
-4.80504e-04,-0.14,-0.148
-4.80496e-04,0.06,0.036
-4.80488e-04,0.004,-0.18
-4.80480e-04,-0.012,0.076
-4.80472e-04,-0.036,-0.052
-4.80464e-04,0.1,0.044
-4.80456e-04,-0.132,-0.06
-4.80448e-04,-0.1,0.1
-4.80440e-04,-0.052,-0.196
-4.80432e-04,-0.004,0.076
-4.80424e-04,-0.124,-0.164
-4.80416e-04,-0.06,0.044
-4.80408e-04,0.02,-0.188
-4.80400e-04,-0.06,0.02
-4.80392e-04,-0.084,-0.132
-4.80384e-04,-0.1,0.068
-4.80376e-04,0.124,-0.1
-4.80368e-04,-0.036,0.036
-4.80360e-04,0.02,-0.084
-4.80352e-04,-0.036,0.132
-4.80344e-04,-0.004,-0.084
-4.80336e-04,-0.124,0.116
-4.80328e-04,0.036,-0.124
-4.80320e-04,0.028,-0.004
-4.80312e-04,0.068,-0.132
-4.80304e-04,-0.012,0.124
-4.80296e-04,0.076,-0.02
-4.80288e-04,-0.084,0.1
-4.80280e-04,-0.076,-0.14
-4.80272e-04,0.1,0.116
-4.80264e-04,0.188,-0.172
-4.80256e-04,-0.18,0.26
-4.80248e-04,-0.06,-0.196
-4.80240e-04,0.196,0.188
-4.80232e-04,0.068,-0.124
-4.80224e-04,0.052,0.236
-4.80216e-04,0.068,-0.084
-4.80208e-04,0.164,0.164
-4.80200e-04,0.02,-0.012
-4.80192e-04,0.052,0.164
-4.80184e-04,-0.036,-0.036
-4.80176e-04,0.076,0.188
-4.80168e-04,-0.02,-0.132
-4.80160e-04,0.108,0.076
-4.80152e-04,0.02,-0.02
-4.80144e-04,0.02,0.196
-4.80136e-04,-0.028,-0.1
-4.80128e-04,0.14,0.06
-4.80120e-04,0.004,-0.044
-4.80112e-04,-0.044,0.204
-4.80104e-04,0.068,-0.084
-4.80096e-04,0.212,0.108
-4.80088e-04,-0.132,-0.044
-4.80080e-04,-0.084,0.212
-4.80072e-04,0.108,-0.156
-4.80064e-04,0.14,0.204
-4.80056e-04,-0.156,-0.108
-4.80048e-04,-0.028,0.164
-4.80040e-04,0.052,-0.156
-4.80032e-04,0.012,0.172
-4.80024e-04,-0.14,-0.14
-4.80016e-04,-0.044,0.076
-4.80008e-04,0.132,-0.14
-4.80000e-04,-0.036,0.084
-4.79992e-04,-0.22,-0.084
